…
    ## ripi                 0                0
    ## cota                 0                0
    ## penu                 0                0
    ## mede3                0                0
    ## excu1                0                0
    ## acel                 0                0
    ## acpa2                0                0
    ## jasc2                0                0
    ## peli3                0                0
    ## lepa2                0                0
    ## basp                 0                0
    ## jasc1                0                0
    ## 
    ## $tax
    ## # A tibble: 50 x 4
    ##               OTUId     phylum            genus                    species
    ##               <chr>      <chr>            <chr>                      <chr>
    ##  1  ITSall_OTUa_401 Ascomycota Leptosphaerulina Leptosphaerulina_australis
    ##  2 ITSall_OTUa_6598 Ascomycota         Cladonia               unclassified
    ##  3 ITSall_OTUa_4710 Ascomycota   Trimmatostroma      Trimmatostroma_cordae
    ##  4 ITSall_OTUb_2612 Ascomycota          Micarea               unclassified
    ##  5   ITSall_OTUc_24 Ascomycota        Dirinaria               unclassified
    ##  6 ITSall_OTUd_7054 Ascomycota          Micarea               unclassified
    ##  7 ITSall_OTUd_5372 Ascomycota         Lecanora               unclassified
    ##  8 ITSall_OTUd_5115 Ascomycota          Micarea               unclassified
    ##  9 ITSall_OTUd_5072 Ascomycota       Parmotrema     Parmotrema_reticulatum
    ## 10 ITSall_OTUd_5304 Ascomycota          Micarea               unclassified
    ## # ... with 40 more rows
…
    ## cota                 0                0
    ## penu                 0                0
    ## mede3                0                0
    ## excu1                0                0
    ## acel                 0                0
    ## acpa2                0                0
    ## jasc2                0                0
    ## peli3                0                0
    ## acpa3                0                0
    ## lepa2                0                0
    ## basp                 0                0
    ## jasc1                0                0
    ## 
    ## $tax
    ## # A tibble: 101 x 4
    ##                OTUId        phylum         genus
    ##                <chr>         <chr>         <chr>
    ##  1  ITSall_OTUa_6818 Basidiomycota Septobasidium
    ##  2  ITSall_OTUa_7031 Basidiomycota  Cryptococcus
    ##  3  ITSall_OTUa_6805 Basidiomycota  Cryptococcus
    ##  4  ITSall_OTUa_6977 Basidiomycota Septobasidium
    ##  5  ITSall_OTUa_7555 Basidiomycota  Cryptococcus
    ##  6  ITSall_OTUa_7658 Basidiomycota  Cryptococcus
    ##  7  ITSall_OTUa_7179 Basidiomycota  Trichosporon
    ##  8  ITSall_OTUa_7442 Basidiomycota  Cryptococcus
    ##  9  ITSall_OTUa_9675 Basidiomycota  Cryptococcus
    ## 10 ITSall_OTUa_10161 Basidiomycota  Cryptococcus
    ## # ... with 91 more rows, and 1 more variables: species <chr>
…
